^D:\COLLEGE HOMEWORK\SEMESTER 2\C++\WEEK 3\CARDEXCER\CARDEXCER\LABEXER2\MAIN.CPP
D:\COLLEGE HOMEWORK\SEMESTER 2\C++\WEEK 3\CARDEXCER\CARDEXCER\LABEXER2\DEBUG\VC141.PDB
D:\COLLEGE HOMEWORK\SEMESTER 2\C++\WEEK 3\CARDEXCER\CARDEXCER\LABEXER2\DEBUG\VC141.IDB
D:\COLLEGE HOMEWORK\SEMESTER 2\C++\WEEK 3\CARDEXCER\CARDEXCER\LABEXER2\DEBUG\MAIN.OBJ
