^D:\COLLEGE HOMEWORK\SEMESTER 2\C++\WEEK 3\CARDEXCER\CARDEXCER\LABEXER2\DEBUG\MAIN.OBJ
D:\COLLEGE HOMEWORK\SEMESTER 2\C++\WEEK 3\CARDEXCER\CARDEXCER\DEBUG\LABEXER2.EXE
D:\COLLEGE HOMEWORK\SEMESTER 2\C++\WEEK 3\CARDEXCER\CARDEXCER\DEBUG\LABEXER2.ILK
D:\COLLEGE HOMEWORK\SEMESTER 2\C++\WEEK 3\CARDEXCER\CARDEXCER\DEBUG\LABEXER2.PDB
